\relax 
\catcode `"\active 
\select@language{german}
\@writefile{toc}{\select@language{german}}
\@writefile{lof}{\select@language{german}}
\@writefile{lot}{\select@language{german}}
\@writefile{toc}{\contentsline {section}{\numberline {1}Klassendokumentation und -erkl\IeC {\"a}rung}{1}}
\@writefile{toc}{\contentsline {paragraph}{\texttt  {ConcurrentBFSGraphSearchManager} - die Verwaltung}{1}}
\@writefile{toc}{\contentsline {paragraph}{\texttt  {ConcurrentBFSGraphSearcher} - die Arbeiterklasse}{1}}
\@writefile{toc}{\contentsline {paragraph}{\texttt  {ConcurrentLTSBuilder} - der, der Alles verbindet}{2}}
